\tikzset{every picture/.style={line width=0.75pt}} %set default line width to 0.75pt        
\begin{tikzpicture}[x=0.75pt,y=0.75pt,yscale=-1,xscale=1]
%uncomment if require: \path (0,180); %set diagram left start at 0, and has height of 180

%Straight Lines [id:da7176687824649016] 
\draw    (30.54,90.33) -- (106.54,90.33) ;
%Straight Lines [id:da11551455142277156] 
\draw    (110.54,94.33) -- (110.54,160.33) ;
%Shape: Circle [id:dp30011841172747533] 
\draw   (146.87,138.33) .. controls (146.87,136.12) and (148.67,134.33) .. (150.87,134.33) .. controls (153.08,134.33) and (154.87,136.12) .. (154.87,138.33) .. controls (154.87,140.54) and (153.08,142.33) .. (150.87,142.33) .. controls (148.67,142.33) and (146.87,140.54) .. (146.87,138.33) -- cycle ;
%Shape: Circle [id:dp3872108363039978] 
\draw  [fill={rgb, 255:red, 0; green, 0; blue, 0 }  ,fill opacity=1 ] (106.54,90.33) .. controls (106.54,88.12) and (108.33,86.33) .. (110.54,86.33) .. controls (112.75,86.33) and (114.54,88.12) .. (114.54,90.33) .. controls (114.54,92.54) and (112.75,94.33) .. (110.54,94.33) .. controls (108.33,94.33) and (106.54,92.54) .. (106.54,90.33) -- cycle ;
%Straight Lines [id:da27809883823591475] 
\draw    (110.54,20.33) -- (110.54,86.33) ;
%Straight Lines [id:da7956469016564555] 
\draw    (114.54,90.33) -- (190.54,90.33) ;


% Text Node
\draw (155.1,114.25) node [anchor=north west][inner sep=0.75pt]  [font=\scriptsize]  {$x_{1}^{*} \ ( \delta /K,-T/K)$};
% Text Node
\draw (118.22,69.08) node [anchor=north west][inner sep=0.75pt]  [font=\scriptsize]  {$x_{2}^{*} \ ( 0,0)$};
% Text Node
\draw (104.05,-0.89) node [anchor=north west][inner sep=0.75pt]    {$\varphi $};
% Text Node
\draw (16.8,78.36) node [anchor=north west][inner sep=0.75pt]    {$n$};


\end{tikzpicture}
