\tikzset{every picture/.style={line width=0.75pt}} %set default line width to 0.75pt        
\begin{tikzpicture}[x=0.75pt,y=0.75pt,yscale=-1,xscale=1]
%uncomment if require: \path (0,166); %set diagram left start at 0, and has height of 166

%Straight Lines [id:da08349694461569168] 
\draw  [dash pattern={on 0.84pt off 2.51pt}]  (150.99,60.01) -- (150.99,23.66) ;
\draw [shift={(150.99,21.66)}, rotate = 90] [color={rgb, 255:red, 0; green, 0; blue, 0 }  ][line width=0.75]    (10.93,-3.29) .. controls (6.95,-1.4) and (3.31,-0.3) .. (0,0) .. controls (3.31,0.3) and (6.95,1.4) .. (10.93,3.29)   ;
%Straight Lines [id:da8280421063216137] 
\draw    (30.66,91.01) -- (160.66,91.01) ;
%Shape: Circle [id:dp888327952183744] 
\draw  [fill={rgb, 255:red, 0; green, 0; blue, 0 }  ,fill opacity=1 ] (146.99,64.01) .. controls (146.99,61.8) and (148.78,60.01) .. (150.99,60.01) .. controls (153.2,60.01) and (154.99,61.8) .. (154.99,64.01) .. controls (154.99,66.21) and (153.2,68.01) .. (150.99,68.01) .. controls (148.78,68.01) and (146.99,66.21) .. (146.99,64.01) -- cycle ;
%Shape: Circle [id:dp7063350415405207] 
\draw   (160.66,91.01) .. controls (160.66,88.8) and (162.45,87.01) .. (164.66,87.01) .. controls (166.87,87.01) and (168.66,88.8) .. (168.66,91.01) .. controls (168.66,93.21) and (166.87,95.01) .. (164.66,95.01) .. controls (162.45,95.01) and (160.66,93.21) .. (160.66,91.01) -- cycle ;
%Straight Lines [id:da7774823652756108] 
\draw    (110.66,21.01) -- (110.66,158.4) ;
%Straight Lines [id:da8555044139338043] 
\draw  [dash pattern={on 0.84pt off 2.51pt}]  (168.66,91.01) -- (199.5,91.01) ;
\draw [shift={(201.5,91.01)}, rotate = 180] [color={rgb, 255:red, 0; green, 0; blue, 0 }  ][line width=0.75]    (10.93,-3.29) .. controls (6.95,-1.4) and (3.31,-0.3) .. (0,0) .. controls (3.31,0.3) and (6.95,1.4) .. (10.93,3.29)   ;


% Text Node
\draw (157.79,41.81) node [anchor=north west][inner sep=0.75pt]  [font=\scriptsize]  {$x_{1}^{*} \ ( \delta /K,R/\delta -T/K)$};
% Text Node
\draw (165.86,105.61) node [anchor=north west][inner sep=0.75pt]  [font=\scriptsize]  {$x_{2}^{*} \ ( R/T,0)$};
% Text Node
\draw (16.92,79.03) node [anchor=north west][inner sep=0.75pt]    {$n$};
% Text Node
\draw (104.17,-0.55) node [anchor=north west][inner sep=0.75pt]    {$\varphi $};


\end{tikzpicture}

